CA lab2/CA lab2.sim/sim_1/behav/xsim/RF_ALU_FSM_tb.vcd
$date
   Tue Mar 17 10:06:19 2026
$end
$version
  2020.1
$end
$timescale
  1ps
$end
$scope module RF_ALU_FSM_tb $end
$var reg 1 ! clk $end
$var reg 1 " WriteEnable $end
$var reg 5 # ReadReg1 [4:0] $end
$var reg 5 $ ReadReg2 [4:0] $end
$var reg 5 % WriteReg [4:0] $end
$var reg 32 & WriteData [31:0] $end
$var wire 32 ' ReadData1 [31:0] $end
$var wire 32 ( ReadData2 [31:0] $end
$var reg 4 ) ALUControl [3:0] $end
$var wire 32 * ALUResult [31:0] $end
$var wire 1 + Zero $end
$var reg 3 , state [2:0] $end
$var reg 2 - init_idx [1:0] $end
$var reg 4 . op [3:0] $end
$var reg 5 / dest [4:0] $end
$var reg 32 0 result_latch [31:0] $end
$var reg 1 1 rst $end
$var parameter 3 2 IDLE [2:0] $end
$var parameter 3 3 WRITE_REGS [2:0] $end
$var parameter 3 4 READ_REGISTERS [2:0] $end
$var parameter 3 5 ALU_OPERATION [2:0] $end
$var parameter 3 6 WRITE_REGISTERS [2:0] $end
$var parameter 3 7 DONE [2:0] $end
$scope module regf_inst $end
$var wire 1 8 clk $end
$var wire 1 9 rst $end
$var wire 1 : WriteEnable $end
$var wire 5 ; WriteReg [4:0] $end
$var wire 32 < WriteData [31:0] $end
$var wire 5 = ReadReg1 [4:0] $end
$var wire 32 ' ReadData1 [31:0] $end
$var wire 5 > ReadReg2 [4:0] $end
$var wire 32 ( ReadData2 [31:0] $end
$var integer 32 ? i $end
$upscope $end
$scope module alu $end
$var wire 32 ' A [31:0] $end
$var wire 32 ( B [31:0] $end
$var wire 4 @ ALUControl [3:0] $end
$var reg 32 A ALUResult [31:0] $end
$var wire 1 + Zero $end
$upscope $end
$scope begin op_loop $end
$var integer 32 B i $end
$upscope $end
$upscope $end
$enddefinitions $end
#0
$dumpvars
0!
0"
b0 #
b0 $
b0 %
b0 &
b0 '
b0 (
b11 )
b0 *
1+
b0 ,
b0 -
b0 .
b0 /
b0 0
11
b0 2
b1 3
b10 4
b11 5
b100 6
b101 7
08
19
0:
b0 ;
b0 <
b0 =
b0 >
bx ?
b11 @
b0 A
bx B
$end
#5000
1!
b0 '
b0 (
18
#10000
0!
08
#15000
1!
18
#16000
01
09
#20000
0!
08
#25000
1!
18
#26000
1"
b1 %
b10000000100000001000000010000 &
b1 ,
1:
b1 ;
b10000000100000001000000010000 <
#30000
0!
08
#35000
1!
b0 '
b0 (
18
#36000
b10 %
b1000000010000000100000001 &
b10 ;
b1000000010000000100000001 <
#40000
0!
08
#45000
1!
b0 '
b0 (
18
#46000
b11 %
b101 &
b11 ;
b101 <
#50000
0!
08
#55000
1!
b0 '
b0 (
18
#56000
0"
b1 #
b10 $
b10000000100000001000000010000 '
b1000000010000000100000001 (
b11 )
b10001000100010001000100010001 *
0+
b10 ,
b100 /
0:
b1 =
b10 >
b10001000100010001000100010001 A
b0 B
#60000
0!
08
#65000
1!
18
#66000
b11 ,
b10001000100010001000100010001 0
#70000
0!
08
#75000
1!
18
#76000
1"
b100 %
b10001000100010001000100010001 &
b100 ,
1:
b100 ;
b10001000100010001000100010001 <
#80000
0!
08
#85000
1!
b10000000100000001000000010000 '
b1000000010000000100000001 (
18
#86000
0"
b1 #
b10 $
b100 )
b1111000011110000111100001111 *
b10 ,
b1 .
b101 /
0:
b100 @
b1111000011110000111100001111 A
b1 B
#90000
0!
08
#95000
1!
18
#96000
b11 ,
b1111000011110000111100001111 0
#100000
0!
08
#105000
1!
18
#106000
1"
b101 %
b1111000011110000111100001111 &
b100 ,
1:
b101 ;
b1111000011110000111100001111 <
#110000
0!
08
#115000
1!
b10000000100000001000000010000 '
b1000000010000000100000001 (
18
#116000
0"
b1 #
b10 $
b0 )
b0 *
1+
b10 ,
b10 .
b110 /
0:
b0 @
b0 A
b10 B
#120000
0!
08
#125000
1!
18
#126000
b11 ,
b0 0
#130000
0!
08
#135000
1!
18
#136000
1"
b110 %
b0 &
b100 ,
1:
b110 ;
b0 <
#140000
0!
08
#145000
1!
18
#146000
0"
b1 #
b10 $
b1 )
b10001000100010001000100010001 *
0+
b10 ,
b11 .
b111 /
0:
b1 @
b10001000100010001000100010001 A
b11 B
#150000
0!
08
#155000
1!
18
#156000
b11 ,
b10001000100010001000100010001 0
#160000
0!
08
#165000
1!
18
#166000
1"
b111 %
b10001000100010001000100010001 &
b100 ,
1:
b111 ;
b10001000100010001000100010001 <
#170000
0!
08
#175000
1!
b10000000100000001000000010000 '
b1000000010000000100000001 (
18
#176000
0"
b1 #
b10 $
b10 )
b10 ,
b100 .
b1000 /
0:
b10 @
b10001000100010001000100010001 A
b100 B
#180000
0!
08
#185000
1!
18
#186000
b11 ,
#190000
0!
08
#195000
1!
18
#196000
1"
b1000 %
b10001000100010001000100010001 &
b100 ,
1:
b1000 ;
#200000
0!
08
#205000
1!
b10000000100000001000000010000 '
b1000000010000000100000001 (
18
#206000
0"
b1 #
b11 $
b101 (
b101 )
b10000000100000001000000000 *
b10 ,
b101 .
b1001 /
0:
b11 >
b101 @
b10000000100000001000000000 A
b101 B
#210000
0!
08
#215000
1!
18
#216000
b11 ,
b10000000100000001000000000 0
#220000
0!
08
#225000
1!
18
#226000
1"
b1001 %
b10000000100000001000000000 &
b100 ,
1:
b1001 ;
b10000000100000001000000000 <
#230000
0!
08
#235000
1!
b10000000100000001000000010000 '
b101 (
18
#236000
0"
b1 #
b11 $
b110 )
b100000001000000010000000 *
b10 ,
b110 .
b1010 /
0:
b110 @
b100000001000000010000000 A
b110 B
#240000
0!
08
#245000
1!
18
#246000
b11 ,
b100000001000000010000000 0
#250000
0!
08
#255000
1!
18
#256000
1"
b1010 %
b100000001000000010000000 &
b100 ,
1:
b1010 ;
b100000001000000010000000 <
#260000
0!
08
#265000
1!
b10000000100000001000000010000 '
b101 (
18
#266000
0"
b1 #
b1 $
b10000000100000001000000010000 (
b100 )
b0 *
1+
b10 ,
b111 .
b1011 /
0:
b1 >
b100 @
b0 A
b111 B
#270000
0!
08
#275000
1!
18
#276000
b11 ,
b0 0
#280000
0!
08
#285000
1!
18
#286000
1"
b1011 %
b1 &
b100 ,
1:
b1011 ;
b1 <
#290000
0!
08
#295000
1!
b10000000100000001000000010000 '
b10000000100000001000000010000 (
18
#296000
1"
b1100 %
b11001010111111101100101011111110 &
b1000 .
b1100 ;
b11001010111111101100101011111110 <
#300000
0!
08
#305000
1!
b10000000100000001000000010000 '
b10000000100000001000000010000 (
18
#306000
0"
b1100 #
b0 $
b11001010111111101100101011111110 '
b0 (
b11001010111111101100101011111110 *
0+
b10 ,
b1001 .
0:
b1100 =
b0 >
b11001010111111101100101011111110 A
#310000
0!
08
#315000
1!
18
#316000
b11 ,
#320000
0!
08
#325000
1!
18
#326000
b101 ,
